<?xml version="1.0" encoding="utf-8"?>
<!-- Generator: Adobe Illustrator 19.1.0, SVG Export Plug-In . SVG Version: 6.00 Build 0)  -->
<!DOCTYPE svg PUBLIC "-//W3C//DTD SVG 1.1//EN" "http://www.w3.org/Graphics/SVG/1.1/DTD/svg11.dtd">
<svg version="1.1" id="Layer_1" xmlns:sketch="http://www.bohemiancoding.com/sketch/ns"
	 xmlns="http://www.w3.org/2000/svg" xmlns:xlink="http://www.w3.org/1999/xlink" x="0px" y="0px" viewBox="-268.5 57.2 99 99"
	 style="enable-background:new -268.5 57.2 99 99;" xml:space="preserve">
<style type="text/css">
	.st0{fill:none;}
	.st1{fill:#41A7E1;}
</style>
<rect x="-268.5" y="57.2" class="st0" width="99" height="99"/>
<path class="st1" d="M-243.9,74.8h-11.7l36.6,64l5.8-10.2L-243.9,74.8 M-236.5,74.8l5.8,10.2h42.4l5.8-10.2H-236.5 M-227.1,91.3
	l5.8,9.8h12.1l-6.1,10.7l5.8,10.2l17.6-30.7H-227.1"/>
</svg>
